[{
  "_id": "6987845",
  "profil": {
    "_id": {
      "$oid": "5f41666cbf34b61a8c63c06d"
    },
    "name": "Olivier",
    "description": "Arbre fruitier qui produit les olives"
  },
  "name": "Olivier terrasse",
  "latitude": 3.6,
  "longitude": 2.9,
  "humidity": 0,
  "_class": "rain.bot.com.Model.Plante"
},{
  "_id": "54343453",
  "profil": {
    "_id": {
      "$oid": "5f426d60dbcf6b1a5c52887e"
    },
    "name": "Laurier-rose",
    "description": "Espèce d'arbustes ou de petits arbres de la famille des Apocynacées"
  },
  "name": "Laurier-Rose de la piscine",
  "latitude": 3.4000000953674316,
  "longitude": 2.799999952316284,
  "humidity": 0,
  "_class": "rain.bot.com.Model.Plante"
}]